[ {
  "buildOrder" : 41,
  "reportUrl" : "http://192.168.0.103:8080/job/pytest%E8%87%AA%E5%8A%A8%E5%8C%96%E6%B5%8B%E8%AF%95%E6%8A%A5%E5%91%8A/41/allure",
  "reportName" : "AllureReport",
  "data" : {
    "Test defects" : 8
  }
} ]