{
  "uid" : "b1a8273437954620fa374b796ffaacdd",
  "name" : "behaviors",
  "children" : [ {
    "name" : "test_get_token[case0]",
    "uid" : "b758050958fc5ad",
    "parentUid" : "b1a8273437954620fa374b796ffaacdd",
    "status" : "broken",
    "time" : {
      "start" : 1620019855899,
      "stop" : 1620019856891,
      "duration" : 992
    },
    "flaky" : false,
    "newFailed" : false,
    "parameters" : [ "<common.ExcelTools.Case object at 0x00000126F5F22860>" ]
  }, {
    "name" : "test_get_token[case1]",
    "uid" : "1eef3c0d66a3d276",
    "parentUid" : "b1a8273437954620fa374b796ffaacdd",
    "status" : "broken",
    "time" : {
      "start" : 1620019856969,
      "stop" : 1620019857020,
      "duration" : 51
    },
    "flaky" : false,
    "newFailed" : false,
    "parameters" : [ "<common.ExcelTools.Case object at 0x00000126F6CD7390>" ]
  }, {
    "name" : "test_get_token[case2]",
    "uid" : "a7cf58d57fe283f2",
    "parentUid" : "b1a8273437954620fa374b796ffaacdd",
    "status" : "broken",
    "time" : {
      "start" : 1620019857039,
      "stop" : 1620019857091,
      "duration" : 52
    },
    "flaky" : false,
    "newFailed" : false,
    "parameters" : [ "<common.ExcelTools.Case object at 0x00000126F6CD74A8>" ]
  }, {
    "name" : "test_get_token[case3]",
    "uid" : "35a6837d1cd74bdf",
    "parentUid" : "b1a8273437954620fa374b796ffaacdd",
    "status" : "broken",
    "time" : {
      "start" : 1620019857113,
      "stop" : 1620019857179,
      "duration" : 66
    },
    "flaky" : false,
    "newFailed" : false,
    "parameters" : [ "<common.ExcelTools.Case object at 0x00000126F6C25BE0>" ]
  }, {
    "name" : "test1_memo[case0]",
    "uid" : "ed1f82471b14130f",
    "parentUid" : "b1a8273437954620fa374b796ffaacdd",
    "status" : "broken",
    "time" : {
      "start" : 1620019857250,
      "stop" : 1620019857252,
      "duration" : 2
    },
    "flaky" : false,
    "newFailed" : false,
    "parameters" : [ "<common.ExcelTools.Case object at 0x00000126F729AC88>" ]
  }, {
    "name" : "test1_memo[case1]",
    "uid" : "c4b0e27e2f8ca37d",
    "parentUid" : "b1a8273437954620fa374b796ffaacdd",
    "status" : "broken",
    "time" : {
      "start" : 1620019857319,
      "stop" : 1620019857320,
      "duration" : 1
    },
    "flaky" : false,
    "newFailed" : false,
    "parameters" : [ "<common.ExcelTools.Case object at 0x00000126F729AB70>" ]
  }, {
    "name" : "test1_memo[case2]",
    "uid" : "6976387e72878fb9",
    "parentUid" : "b1a8273437954620fa374b796ffaacdd",
    "status" : "broken",
    "time" : {
      "start" : 1620019857375,
      "stop" : 1620019857376,
      "duration" : 1
    },
    "flaky" : false,
    "newFailed" : false,
    "parameters" : [ "<common.ExcelTools.Case object at 0x00000126F72B6470>" ]
  }, {
    "name" : "test1_memo[case3]",
    "uid" : "5fc5d054e78cd748",
    "parentUid" : "b1a8273437954620fa374b796ffaacdd",
    "status" : "broken",
    "time" : {
      "start" : 1620019857467,
      "stop" : 1620019857468,
      "duration" : 1
    },
    "flaky" : false,
    "newFailed" : false,
    "parameters" : [ "<common.ExcelTools.Case object at 0x00000126F72B6390>" ]
  } ]
}