"Status","Start Time","Stop Time","Duration in ms","Parent Suite","Suite","Sub Suite","Test Class","Test Method","Name","Description"
"broken","Mon May 03 13:30:57 CST 2021","Mon May 03 13:30:57 CST 2021","1","testcase.test_001repair_main","test_001Repair","TestMemo","","","test1_memo[case2]","
        添加公文
        :param case:
        :return:
        "
"broken","Mon May 03 13:30:56 CST 2021","Mon May 03 13:30:57 CST 2021","51","testcase","test_001Authorization","TestAuthorization","","","test_get_token[case1]",""
"broken","Mon May 03 13:30:57 CST 2021","Mon May 03 13:30:57 CST 2021","1","testcase.test_001repair_main","test_001Repair","TestMemo","","","test1_memo[case1]","
        添加公文
        :param case:
        :return:
        "
"broken","Mon May 03 13:30:57 CST 2021","Mon May 03 13:30:57 CST 2021","52","testcase","test_001Authorization","TestAuthorization","","","test_get_token[case2]",""
"broken","Mon May 03 13:30:55 CST 2021","Mon May 03 13:30:56 CST 2021","992","testcase","test_001Authorization","TestAuthorization","","","test_get_token[case0]",""
"broken","Mon May 03 13:30:57 CST 2021","Mon May 03 13:30:57 CST 2021","1","testcase.test_001repair_main","test_001Repair","TestMemo","","","test1_memo[case3]","
        添加公文
        :param case:
        :return:
        "
"broken","Mon May 03 13:30:57 CST 2021","Mon May 03 13:30:57 CST 2021","2","testcase.test_001repair_main","test_001Repair","TestMemo","","","test1_memo[case0]","
        添加公文
        :param case:
        :return:
        "
"broken","Mon May 03 13:30:57 CST 2021","Mon May 03 13:30:57 CST 2021","66","testcase","test_001Authorization","TestAuthorization","","","test_get_token[case3]",""
